top_tb.vcd
$date
	Thu May 30 18:48:34 2024
$end
$version
	Icarus Verilog
$end
$timescale
	1ps
$end
$scope module testbench $end
$var parameter 32 ! CLK_PERIOD $end
$var reg 1 " clk $end
$var reg 1 # reset $end
$scope module dut $end
$var wire 1 " clk $end
$var wire 1 # reset $end
$var wire 2 $ wbsel [1:0] $end
$var wire 1 % useDM $end
$var wire 32 & rs2data [31:0] $end
$var wire 5 ' rs2 [4:0] $end
$var wire 1 ( rs1pc $end
$var wire 32 ) rs1data [31:0] $end
$var wire 5 * rs1 [4:0] $end
$var wire 1 + rfwenable $end
$var wire 32 , res [31:0] $end
$var wire 5 - rd [4:0] $end
$var wire 1 . pcjump $end
$var wire 32 / pc4 [31:0] $end
$var wire 32 0 pc [31:0] $end
$var wire 7 1 opcode [6:0] $end
$var wire 32 2 mux_rs1pc [31:0] $end
$var wire 32 3 mux_pcjump [31:0] $end
$var wire 32 4 mux_imm [31:0] $end
$var wire 1 5 jaljalr $end
$var wire 32 6 inst [31:0] $end
$var wire 1 7 immreg $end
$var wire 32 8 imm [31:0] $end
$var wire 7 9 func7 [6:0] $end
$var wire 3 : func3 [2:0] $end
$var wire 1 ; dmwen $end
$var wire 32 < dmout [31:0] $end
$var wire 1 = brinst $end
$var wire 32 > aluout [31:0] $end
$scope module adder_ins $end
$var wire 32 ? pc4 [31:0] $end
$var wire 32 @ pc [31:0] $end
$upscope $end
$scope module alu_ins $end
$var wire 32 A op2 [31:0] $end
$var wire 32 B op1 [31:0] $end
$var wire 7 C func7 [6:0] $end
$var wire 3 D func3 [2:0] $end
$var reg 32 E add_result [31:0] $end
$var reg 32 F addsub_result [31:0] $end
$var reg 32 G and_result [31:0] $end
$var reg 1 H func7_result $end
$var reg 32 I or_result [31:0] $end
$var reg 32 J out [31:0] $end
$var reg 32 K shift_left_result [31:0] $end
$var reg 32 L shift_right_result [31:0] $end
$var reg 32 M signed_compare_result [31:0] $end
$var reg 32 N signed_shift_right_result [31:0] $end
$var reg 32 O srlsra_result [31:0] $end
$var reg 32 P sub_result [31:0] $end
$var reg 32 Q unsigned_compare_result [31:0] $end
$var reg 32 R xor_result [31:0] $end
$upscope $end
$scope module branch_ins $end
$var wire 32 S rs2data [31:0] $end
$var wire 32 T rs1data [31:0] $end
$var wire 1 5 jal $end
$var wire 3 U func3 [2:0] $end
$var wire 1 = binst $end
$var reg 1 V mux_res $end
$var reg 1 . pcjump $end
$var reg 1 ( rs1pc $end
$upscope $end
$scope module control_ins $end
$var wire 1 + rfwenable $end
$var wire 1 % useDM $end
$var wire 1 5 jaljalr $end
$var wire 32 W instr [31:0] $end
$var wire 1 7 immreg $end
$var wire 1 ; dmwen $end
$var wire 1 = brinst $end
$var reg 2 X wbsel [1:0] $end
$upscope $end
$scope module dmemory_ins $end
$var wire 32 Y addr [31:0] $end
$var wire 1 " clk $end
$var wire 1 ; dmwen $end
$var wire 32 Z wdata [31:0] $end
$var wire 3 [ func3 [2:0] $end
$var reg 8 \ byte0 [7:0] $end
$var reg 8 ] byte1 [7:0] $end
$var reg 8 ^ byte2 [7:0] $end
$var reg 8 _ byte3 [7:0] $end
$var reg 32 ` dmout [31:0] $end
$var reg 1 a lbyte $end
$var reg 1 b lhalf $end
$var reg 1 c lword $end
$var reg 8 d mux_byte0 [7:0] $end
$var reg 8 e mux_byte1 [7:0] $end
$var reg 8 f mux_byte2 [7:0] $end
$var reg 8 g mux_byte3 [7:0] $end
$upscope $end
$scope module immunit_ins $end
$var wire 32 h inst [31:0] $end
$var reg 3 i func3 [2:0] $end
$var reg 32 j imm [31:0] $end
$var reg 32 k immb [31:0] $end
$var reg 32 l immi [31:0] $end
$var reg 32 m immj [31:0] $end
$var reg 32 n imms [31:0] $end
$var reg 32 o immu [31:0] $end
$var reg 1 p normal_i $end
$var reg 7 q opcode [6:0] $end
$var reg 1 r shamflag $end
$var reg 32 s shamt [31:0] $end
$var reg 1 t special_i $end
$upscope $end
$scope module instdec_ins $end
$var wire 32 u inst [31:0] $end
$var reg 3 v func3 [2:0] $end
$var reg 7 w func7 [6:0] $end
$var reg 7 x opcode [6:0] $end
$var reg 5 y rd [4:0] $end
$var reg 5 z rs1 [4:0] $end
$var reg 5 { rs2 [4:0] $end
$upscope $end
$scope module mux2_1_imm $end
$var wire 32 | b [31:0] $end
$var wire 1 7 sel $end
$var wire 32 } a [31:0] $end
$var reg 32 ~ out [31:0] $end
$upscope $end
$scope module mux2_1_pcjump $end
$var wire 32 !" a [31:0] $end
$var wire 32 "" b [31:0] $end
$var wire 1 . sel $end
$var reg 32 #" out [31:0] $end
$upscope $end
$scope module mux2_1_rs1pc $end
$var wire 1 ( sel $end
$var wire 32 $" b [31:0] $end
$var wire 32 %" a [31:0] $end
$var reg 32 &" out [31:0] $end
$upscope $end
$scope module mux4_1_wbsel $end
$var wire 32 '" a [31:0] $end
$var wire 32 (" b [31:0] $end
$var wire 32 )" c [31:0] $end
$var wire 32 *" d [31:0] $end
$var wire 2 +" sel [1:0] $end
$var reg 32 ," out [31:0] $end
$upscope $end
$scope module p_memory_ins $end
$var wire 32 -" address [31:0] $end
$var reg 32 ." data_out [31:0] $end
$upscope $end
$scope module pc_ins $end
$var wire 1 " clk $end
$var wire 1 /" enable $end
$var wire 32 0" input_data [31:0] $end
$var wire 1 # reset $end
$var wire 32 1" output_data [31:0] $end
$var reg 32 2" mux_output [31:0] $end
$var reg 32 3" reg_output [31:0] $end
$upscope $end
$scope module regfile_ins $end
$var wire 1 " clk $end
$var wire 1 + enable $end
$var wire 5 4" rdAdrs [4:0] $end
$var wire 32 5" rdData [31:0] $end
$var wire 5 6" rs1Adrs [4:0] $end
$var wire 5 7" rs2Adrs [4:0] $end
$var reg 32 8" rs1Data [31:0] $end
$var reg 32 9" rs2Data [31:0] $end
$upscope $end
$upscope $end
$upscope $end
$enddefinitions $end
$comment Show the parameter values. $end
$dumpall
b1010 !
$end
#0
$dumpvars
bx 9"
bx 8"
bx 7"
bx 6"
bx 5"
bx 4"
bx 3"
b0 2"
bx 1"
bx 0"
1/"
bx ."
bx -"
bx ,"
b0 +"
b0 *"
bx )"
bx ("
bx '"
bx &"
bx %"
bx $"
bx #"
bx ""
bx !"
bx ~
bx }
bx |
bx {
bx z
bx y
bx x
bx w
bx v
bx u
xt
bx s
xr
bx q
xp
bx o
bx n
bx m
bx l
bx k
bx j
bx i
bx h
bx g
bx f
bx e
bx d
xc
xb
xa
bx `
bx _
bx ^
bx ]
bx \
bx [
bx Z
bx Y
b0 X
bx W
xV
bx U
bx T
bx S
bx R
bx Q
bx P
bx O
bx N
bx M
bx L
bx K
bx J
bx I
xH
bx G
bx F
bx E
bx D
bx C
bx B
bx A
bx @
bx ?
bx >
x=
bx <
x;
bx :
bx 9
bx 8
x7
bx 6
x5
bx 4
bx 3
bx 2
bx 1
bx 0
bx /
x.
bx -
bx ,
x+
bx *
bx )
0(
bx '
bx &
x%
b0 $
1#
0"
$end
#5000
b100 3
b100 #"
b100 0"
b0xxxxxxxxxx ,
b0xxxxxxxxxx ,"
b0xxxxxxxxxx 5"
0.
b0xxxxxxxxxx >
b0xxxxxxxxxx J
b0xxxxxxxxxx Y
b0xxxxxxxxxx ""
b0xxxxxxxxxx '"
b0xxxxxxxxxx O
b0xxxxxxxxxx N
b0xxxxxxxxxx L
bx0000000000000000000000 K
b0x00000x0xx0 G
bx1xxxxx1x11x I
1+
05
b10000010110 4
b10000010110 A
b10000010110 ~
0%
0=
0;
17
1H
b0x Q
b0x M
b10000010110 8
b10000010110 j
b10000010110 |
1r
1t
1p
b110000000100 k
b10000000101 n
b10000010110001101010 m
b1000001011000110101 o
b10110 s
b10000010110 l
b101 i
b10011 q
b100000 9
b100000 C
b100000 w
b10110 '
b10110 {
b10110 7"
b110 *
b110 z
b110 6"
b101 :
b101 D
b101 U
b101 [
b101 v
b101 -
b101 y
b101 4"
b10011 1
b10011 x
b1000001011000110101001010010011 6
b1000001011000110101001010010011 W
b1000001011000110101001010010011 h
b1000001011000110101001010010011 u
b1000001011000110101001010010011 ."
b100 /
b100 ?
b100 !"
b100 )"
b0 0
b0 @
b0 $"
b0 -"
b0 1"
b0 3"
b0 <
b0 `
b0 ("
b0 g
b0 f
b0 e
b0 d
1"
#10000
0"
#15000
1"
#20000
0"
#25000
1"
#30000
0"
#35000
1"
#40000
0"
#45000
1"
#50000
0"
#55000
1"
#60000
0"
#65000
1"
#70000
0"
#75000
1"
#80000
0"
#85000
1"
#90000
0"
#95000
1"
#100000
b100 2"
0"
0#
#105000
b0xxxxxxx ,
b0xxxxxxx ,"
b0xxxxxxx 5"
b0xxxxxxx >
b0xxxxxxx J
b0xxxxxxx Y
b0xxxxxxx ""
b0xxxxxxx '"
b0xxxxxxx O
b0xxxxxxx N
b0xxxxxxx L
bx0000000000000000000000000 K
b0x00000xx00x G
bx1xxxxx11xx1 I
b10000011001 4
b10000011001 A
b10000011001 ~
b1000 2"
b10000011001 8
b10000011001 j
b10000011001 |
b110000000110 k
b10000000111 n
b10000011001000011010 m
b1000001100100001101 o
b11001 s
b10000011001 l
b11001 '
b11001 {
b11001 7"
b1 *
b1 z
b1 6"
b111 -
b111 y
b111 4"
b1000 3
b1000 #"
b1000 0"
b1000001100100001101001110010011 6
b1000001100100001101001110010011 W
b1000001100100001101001110010011 h
b1000001100100001101001110010011 u
b1000001100100001101001110010011 ."
b1000 /
b1000 ?
b1000 !"
b1000 )"
b100 0
b100 @
b100 $"
b100 -"
b100 1"
b100 3"
1"
#110000
0"
#115000
b0x ,
b0x ,"
b0x 5"
b0x >
b0x J
b0x Y
b0x ""
b0x '"
b0x O
b0x N
b0x L
bx0000000000000000000000000000000 K
b0x00000xxxxx G
bx1xxxxx11111 I
b10000011111 4
b10000011111 A
b10000011111 ~
b1100 2"
b10000011111 8
b10000011111 j
b10000011111 |
b110000000100 k
b10000000101 n
b10000011111000101010 m
b1000001111100010101 o
b11111 s
b10000011111 l
b11111 '
b11111 {
b11111 7"
b10 *
b10 z
b10 6"
b101 -
b101 y
b101 4"
b1100 3
b1100 #"
b1100 0"
b1000001111100010101001010010011 6
b1000001111100010101001010010011 W
b1000001111100010101001010010011 h
b1000001111100010101001010010011 u
b1000001111100010101001010010011 ."
b1100 /
b1100 ?
b1100 !"
b1100 )"
b1000 0
b1000 @
b1000 $"
b1000 -"
b1000 1"
b1000 3"
1"
#120000
0"
#125000
b0xxxxxxxxxxxxxxxxxxxxxxxxxxxxx ,
b0xxxxxxxxxxxxxxxxxxxxxxxxxxxxx ,"
b0xxxxxxxxxxxxxxxxxxxxxxxxxxxxx 5"
b0xxxxxxxxxxxxxxxxxxxxxxxxxxxxx >
b0xxxxxxxxxxxxxxxxxxxxxxxxxxxxx J
b0xxxxxxxxxxxxxxxxxxxxxxxxxxxxx Y
b0xxxxxxxxxxxxxxxxxxxxxxxxxxxxx ""
b0xxxxxxxxxxxxxxxxxxxxxxxxxxxxx '"
b0xxxxxxxxxxxxxxxxxxxxxxxxxxxxx O
b0xxxxxxxxxxxxxxxxxxxxxxxxxxxxx N
b0xxxxxxxxxxxxxxxxxxxxxxxxxxxxx L
bx000 K
b0x00000000xx G
bx1xxxxxxxx11 I
b10000000011 4
b10000000011 A
b10000000011 ~
b10000 2"
b10000000011 8
b10000000011 j
b10000000011 |
b10000001000 k
b10000001000 n
b10000000011010011010 m
b1000000001101001101 o
b11 s
b10000000011 l
b11 '
b11 {
b11 7"
b1001 *
b1001 z
b1001 6"
b1000 -
b1000 y
b1000 4"
b10000 3
b10000 #"
b10000 0"
b1000000001101001101010000010011 6
b1000000001101001101010000010011 W
b1000000001101001101010000010011 h
b1000000001101001101010000010011 u
b1000000001101001101010000010011 ."
b10000 /
b10000 ?
b10000 !"
b10000 )"
b1100 0
b1100 @
b1100 $"
b1100 -"
b1100 1"
b1100 3"
1"
#130000
0"
#135000
b0xxxxxxxxxxxxxxxxxxxx ,
b0xxxxxxxxxxxxxxxxxxxx ,"
b0xxxxxxxxxxxxxxxxxxxx 5"
b0xxxxxxxxxxxxxxxxxxxx >
b0xxxxxxxxxxxxxxxxxxxx J
b0xxxxxxxxxxxxxxxxxxxx Y
b0xxxxxxxxxxxxxxxxxxxx ""
b0xxxxxxxxxxxxxxxxxxxx '"
b0xxxxxxxxxxxxxxxxxxxx O
b0xxxxxxxxxxxxxxxxxxxx N
b0xxxxxxxxxxxxxxxxxxxx L
bx000000000000 K
b0xx00 G
bx11xx I
b1100 4
b1100 A
b1100 ~
0H
b10100 2"
b1100 8
b1100 j
b1100 |
b100 k
b100 n
b1100101011010 m
b110010101101 o
b1100 s
b1100 l
b0 9
b0 C
b0 w
b1100 '
b1100 {
b1100 7"
b10101 *
b10101 z
b10101 6"
b100 -
b100 y
b100 4"
b10100 3
b10100 #"
b10100 0"
b110010101101001000010011 6
b110010101101001000010011 W
b110010101101001000010011 h
b110010101101001000010011 u
b110010101101001000010011 ."
b10100 /
b10100 ?
b10100 !"
b10100 )"
b10000 0
b10000 @
b10000 $"
b10000 -"
b10000 1"
b10000 3"
1"
#140000
0"
#145000
b0xxxxxxxxxxxxxxxxxxxxxxxxxxx ,
b0xxxxxxxxxxxxxxxxxxxxxxxxxxx ,"
b0xxxxxxxxxxxxxxxxxxxxxxxxxxx 5"
b0xxxxxxxxxxxxxxxxxxxxxxxxxxx >
b0xxxxxxxxxxxxxxxxxxxxxxxxxxx J
b0xxxxxxxxxxxxxxxxxxxxxxxxxxx Y
b0xxxxxxxxxxxxxxxxxxxxxxxxxxx ""
b0xxxxxxxxxxxxxxxxxxxxxxxxxxx '"
b0xxxxxxxxxxxxxxxxxxxxxxxxxxx O
b0xxxxxxxxxxxxxxxxxxxxxxxxxxx N
b0xxxxxxxxxxxxxxxxxxxxxxxxxxx L
bx00000 K
b0x0x G
bx1x1 I
b101 4
b101 A
b101 ~
b11000 2"
b101 8
b101 j
b101 |
b101101111010 m
b10110111101 o
b101 s
b101 l
b101 '
b101 {
b101 7"
b10111 *
b10111 z
b10111 6"
b11000 3
b11000 #"
b11000 0"
b10110111101001000010011 6
b10110111101001000010011 W
b10110111101001000010011 h
b10110111101001000010011 u
b10110111101001000010011 ."
b11000 /
b11000 ?
b11000 !"
b11000 )"
b10100 0
b10100 @
b10100 $"
b10100 -"
b10100 1"
b10100 3"
1"
#150000
0"
#155000
b0xxxxxxxxxxxxxxxxxxxxxxxxxxxxxxx ,
b0xxxxxxxxxxxxxxxxxxxxxxxxxxxxxxx ,"
b0xxxxxxxxxxxxxxxxxxxxxxxxxxxxxxx 5"
b0xxxxxxxxxxxxxxxxxxxxxxxxxxxxxxx >
b0xxxxxxxxxxxxxxxxxxxxxxxxxxxxxxx J
b0xxxxxxxxxxxxxxxxxxxxxxxxxxxxxxx Y
b0xxxxxxxxxxxxxxxxxxxxxxxxxxxxxxx ""
b0xxxxxxxxxxxxxxxxxxxxxxxxxxxxxxx '"
b0xxxxxxxxxxxxxxxxxxxxxxxxxxxxxxx O
b0xxxxxxxxxxxxxxxxxxxxxxxxxxxxxxx N
b0xxxxxxxxxxxxxxxxxxxxxxxxxxxxxxx L
bx0 K
b0x G
bx1 I
b1 4
b1 A
b1 ~
b11100 2"
b1 8
b1 j
b1 |
b100000000010 k
b11 n
b1001001010 m
b100100101 o
b1 s
b1 l
b1 '
b1 {
b1 7"
b100 *
b100 z
b100 6"
b11 -
b11 y
b11 4"
b11100 3
b11100 #"
b11100 0"
b100100101000110010011 6
b100100101000110010011 W
b100100101000110010011 h
b100100101000110010011 u
b100100101000110010011 ."
b0x &
b0x S
b0x Z
b0x }
b0x 9"
b11100 /
b11100 ?
b11100 !"
b11100 )"
b11000 0
b11000 @
b11000 $"
b11000 -"
b11000 1"
b11000 3"
1"
#160000
0"
#165000
b0xx G
b11 4
b11 A
b11 ~
b0xxxxxxxxxxxxxxxxxxxxxxxx ,
b0xxxxxxxxxxxxxxxxxxxxxxxx ,"
b0xxxxxxxxxxxxxxxxxxxxxxxx 5"
b100000 2"
b11 8
b11 j
b11 |
b100000000000 k
b1 n
b11011001010 m
b1101100101 o
b11 s
b11 l
b11 '
b11 {
b11 7"
b1100 *
b1100 z
b1100 6"
b1 -
b1 y
b1 4"
b0xxxxxxxxxxxxxxxxxxxxxxxx >
b0xxxxxxxxxxxxxxxxxxxxxxxx J
b0xxxxxxxxxxxxxxxxxxxxxxxx Y
b0xxxxxxxxxxxxxxxxxxxxxxxx ""
b0xxxxxxxxxxxxxxxxxxxxxxxx '"
b0xxxxxxxxxxxxxxxxxxxxxxxx O
b0xxxxxxxxxxxxxxxxxxxxxxxx N
b0xxxxxxxxxxxxxxxxxxxxxxxx L
b0xxxxxxxxxxxxxxxxxxxxxxxxxxx000 K
b0xxxxxxxxxxxxxxxxxxxxxxxxx11 I
b0xxxxxxxxxxxxxxxxxxxxxxxxxxx R
b100000 3
b100000 #"
b100000 0"
b1101100101000010010011 6
b1101100101000010010011 W
b1101100101000010010011 h
b1101100101000010010011 u
b1101100101000010010011 ."
b0xxxxxxxxxxxxxxxxxxxxxxxxxxx 2
b0xxxxxxxxxxxxxxxxxxxxxxxxxxx B
b0xxxxxxxxxxxxxxxxxxxxxxxxxxx &"
b100000 /
b100000 ?
b100000 !"
b100000 )"
b11100 0
b11100 @
b11100 $"
b11100 -"
b11100 1"
b11100 3"
bx &
bx S
bx Z
bx }
bx 9"
b0xxxxxxxxxxxxxxxxxxxxxxxxxxx )
b0xxxxxxxxxxxxxxxxxxxxxxxxxxx T
b0xxxxxxxxxxxxxxxxxxxxxxxxxxx %"
b0xxxxxxxxxxxxxxxxxxxxxxxxxxx 8"
1"
#170000
0"
#175000
bx ,
bx ,"
bx 5"
b100100 2"
bx >
bx J
bx Y
bx ""
bx '"
b0xxxxxxxxxxxxxxxxxxxxxxxxxxxxx O
b0xxxxxxxxxxxxxxxxxxxxxxxxxxxxx N
b0xxxxxxxxxxxxxxxxxxxxxxxxxxxxx L
bx000 K
bx11 I
bx R
0r
0t
0p
b0 k
b0 n
b0 m
b0 o
b0 s
b0 l
b0 i
b0 q
b0 '
b0 {
b0 7"
b0 *
b0 z
b0 6"
b0 :
b0 D
b0 U
b0 [
b0 v
b0 -
b0 y
b0 4"
b0 1
b0 x
b100100 3
b100100 #"
b100100 0"
bx 2
bx B
bx &"
b0 6
b0 W
b0 h
b0 u
b0 ."
b0xxxxxxxxxxxxxxxxxxxxxxxxxxxxxxx &
b0xxxxxxxxxxxxxxxxxxxxxxxxxxxxxxx S
b0xxxxxxxxxxxxxxxxxxxxxxxxxxxxxxx Z
b0xxxxxxxxxxxxxxxxxxxxxxxxxxxxxxx }
b0xxxxxxxxxxxxxxxxxxxxxxxxxxxxxxx 9"
bx )
bx T
bx %"
bx 8"
b100100 /
b100100 ?
b100100 !"
b100100 )"
b100000 0
b100000 @
b100000 $"
b100000 -"
b100000 1"
b100000 3"
1"
#180000
0"
#185000
b101000 2"
b101000 3
b101000 #"
b101000 0"
b101000 /
b101000 ?
b101000 !"
b101000 )"
b100100 0
b100100 @
b100100 $"
b100100 -"
b100100 1"
b100100 3"
bx &
bx S
bx Z
bx }
bx 9"
b0xxxxxxxx <
b0xxxxxxxx `
b0xxxxxxxx ("
bx d
1a
0b
0c
1"
#190000
0"
#195000
b101100 2"
b101100 3
b101100 #"
b101100 0"
b101100 /
b101100 ?
b101100 !"
b101100 )"
b101000 0
b101000 @
b101000 $"
b101000 -"
b101000 1"
b101000 3"
1"
#200000
0"
#205000
b110000 2"
b110000 3
b110000 #"
b110000 0"
b110000 /
b110000 ?
b110000 !"
b110000 )"
b101100 0
b101100 @
b101100 $"
b101100 -"
b101100 1"
b101100 3"
1"
#210000
0"
#215000
b110100 2"
b110100 3
b110100 #"
b110100 0"
b110100 /
b110100 ?
b110100 !"
b110100 )"
b110000 0
b110000 @
b110000 $"
b110000 -"
b110000 1"
b110000 3"
1"
#220000
0"
#225000
b111000 2"
b111000 3
b111000 #"
b111000 0"
b111000 /
b111000 ?
b111000 !"
b111000 )"
b110100 0
b110100 @
b110100 $"
b110100 -"
b110100 1"
b110100 3"
1"
#230000
0"
#235000
b111100 2"
b111100 3
b111100 #"
b111100 0"
b111100 /
b111100 ?
b111100 !"
b111100 )"
b111000 0
b111000 @
b111000 $"
b111000 -"
b111000 1"
b111000 3"
1"
#240000
0"
#245000
b1000000 2"
b1000000 3
b1000000 #"
b1000000 0"
b1000000 /
b1000000 ?
b1000000 !"
b1000000 )"
b111100 0
b111100 @
b111100 $"
b111100 -"
b111100 1"
b111100 3"
1"
#250000
0"
#255000
b1000100 2"
b1000100 3
b1000100 #"
b1000100 0"
b1000100 /
b1000100 ?
b1000100 !"
b1000100 )"
b1000000 0
b1000000 @
b1000000 $"
b1000000 -"
b1000000 1"
b1000000 3"
1"
#260000
0"
#265000
b1001000 2"
b1001000 3
b1001000 #"
b1001000 0"
b1001000 /
b1001000 ?
b1001000 !"
b1001000 )"
b1000100 0
b1000100 @
b1000100 $"
b1000100 -"
b1000100 1"
b1000100 3"
1"
#270000
0"
#275000
b1001100 2"
b1001100 3
b1001100 #"
b1001100 0"
b1001100 /
b1001100 ?
b1001100 !"
b1001100 )"
b1001000 0
b1001000 @
b1001000 $"
b1001000 -"
b1001000 1"
b1001000 3"
1"
#280000
0"
#285000
b1010000 2"
b1010000 3
b1010000 #"
b1010000 0"
b1010000 /
b1010000 ?
b1010000 !"
b1010000 )"
b1001100 0
b1001100 @
b1001100 $"
b1001100 -"
b1001100 1"
b1001100 3"
1"
#290000
0"
#295000
b1010100 2"
b1010100 3
b1010100 #"
b1010100 0"
b1010100 /
b1010100 ?
b1010100 !"
b1010100 )"
b1010000 0
b1010000 @
b1010000 $"
b1010000 -"
b1010000 1"
b1010000 3"
1"
#300000
0"
#305000
b1011000 2"
b1011000 3
b1011000 #"
b1011000 0"
b1011000 /
b1011000 ?
b1011000 !"
b1011000 )"
b1010100 0
b1010100 @
b1010100 $"
b1010100 -"
b1010100 1"
b1010100 3"
1"
#310000
0"
#315000
b1011100 2"
b1011100 3
b1011100 #"
b1011100 0"
b1011100 /
b1011100 ?
b1011100 !"
b1011100 )"
b1011000 0
b1011000 @
b1011000 $"
b1011000 -"
b1011000 1"
b1011000 3"
1"
#320000
0"
#325000
b1100000 2"
b1100000 3
b1100000 #"
b1100000 0"
b1100000 /
b1100000 ?
b1100000 !"
b1100000 )"
b1011100 0
b1011100 @
b1011100 $"
b1011100 -"
b1011100 1"
b1011100 3"
1"
#330000
0"
#335000
b1100100 2"
b1100100 3
b1100100 #"
b1100100 0"
b1100100 /
b1100100 ?
b1100100 !"
b1100100 )"
b1100000 0
b1100000 @
b1100000 $"
b1100000 -"
b1100000 1"
b1100000 3"
1"
#340000
0"
#345000
b1101000 2"
b1101000 3
b1101000 #"
b1101000 0"
b1101000 /
b1101000 ?
b1101000 !"
b1101000 )"
b1100100 0
b1100100 @
b1100100 $"
b1100100 -"
b1100100 1"
b1100100 3"
1"
#350000
0"
#355000
b1101100 2"
b1101100 3
b1101100 #"
b1101100 0"
b1101100 /
b1101100 ?
b1101100 !"
b1101100 )"
b1101000 0
b1101000 @
b1101000 $"
b1101000 -"
b1101000 1"
b1101000 3"
1"
#360000
0"
#365000
b1110000 2"
b1110000 3
b1110000 #"
b1110000 0"
b1110000 /
b1110000 ?
b1110000 !"
b1110000 )"
b1101100 0
b1101100 @
b1101100 $"
b1101100 -"
b1101100 1"
b1101100 3"
1"
#370000
0"
#375000
b1110100 2"
b1110100 3
b1110100 #"
b1110100 0"
b1110100 /
b1110100 ?
b1110100 !"
b1110100 )"
b1110000 0
b1110000 @
b1110000 $"
b1110000 -"
b1110000 1"
b1110000 3"
1"
#380000
0"
#385000
b1111000 2"
b1111000 3
b1111000 #"
b1111000 0"
b1111000 /
b1111000 ?
b1111000 !"
b1111000 )"
b1110100 0
b1110100 @
b1110100 $"
b1110100 -"
b1110100 1"
b1110100 3"
1"
#390000
0"
#395000
b1111100 2"
b1111100 3
b1111100 #"
b1111100 0"
b1111100 /
b1111100 ?
b1111100 !"
b1111100 )"
b1111000 0
b1111000 @
b1111000 $"
b1111000 -"
b1111000 1"
b1111000 3"
1"
#400000
0"
#405000
b10000000 2"
b10000000 3
b10000000 #"
b10000000 0"
b10000000 /
b10000000 ?
b10000000 !"
b10000000 )"
b1111100 0
b1111100 @
b1111100 $"
b1111100 -"
b1111100 1"
b1111100 3"
1"
#410000
0"
#415000
b10000100 2"
b10000100 3
b10000100 #"
b10000100 0"
b10000100 /
b10000100 ?
b10000100 !"
b10000100 )"
b10000000 0
b10000000 @
b10000000 $"
b10000000 -"
b10000000 1"
b10000000 3"
1"
#420000
0"
#425000
b10001000 2"
b10001000 3
b10001000 #"
b10001000 0"
b10001000 /
b10001000 ?
b10001000 !"
b10001000 )"
b10000100 0
b10000100 @
b10000100 $"
b10000100 -"
b10000100 1"
b10000100 3"
1"
#430000
0"
#435000
b10001100 2"
b10001100 3
b10001100 #"
b10001100 0"
b10001100 /
b10001100 ?
b10001100 !"
b10001100 )"
b10001000 0
b10001000 @
b10001000 $"
b10001000 -"
b10001000 1"
b10001000 3"
1"
#440000
0"
#445000
b10010000 2"
b10010000 3
b10010000 #"
b10010000 0"
b10010000 /
b10010000 ?
b10010000 !"
b10010000 )"
b10001100 0
b10001100 @
b10001100 $"
b10001100 -"
b10001100 1"
b10001100 3"
1"
#450000
0"
#455000
b10010100 2"
b10010100 3
b10010100 #"
b10010100 0"
b10010100 /
b10010100 ?
b10010100 !"
b10010100 )"
b10010000 0
b10010000 @
b10010000 $"
b10010000 -"
b10010000 1"
b10010000 3"
1"
#460000
0"
#465000
b10011000 2"
b10011000 3
b10011000 #"
b10011000 0"
b10011000 /
b10011000 ?
b10011000 !"
b10011000 )"
b10010100 0
b10010100 @
b10010100 $"
b10010100 -"
b10010100 1"
b10010100 3"
1"
#470000
0"
#475000
b10011100 2"
b10011100 3
b10011100 #"
b10011100 0"
b10011100 /
b10011100 ?
b10011100 !"
b10011100 )"
b10011000 0
b10011000 @
b10011000 $"
b10011000 -"
b10011000 1"
b10011000 3"
1"
#480000
0"
#485000
b10100000 2"
b10100000 3
b10100000 #"
b10100000 0"
b10100000 /
b10100000 ?
b10100000 !"
b10100000 )"
b10011100 0
b10011100 @
b10011100 $"
b10011100 -"
b10011100 1"
b10011100 3"
1"
#490000
0"
#495000
b10100100 2"
b10100100 3
b10100100 #"
b10100100 0"
b10100100 /
b10100100 ?
b10100100 !"
b10100100 )"
b10100000 0
b10100000 @
b10100000 $"
b10100000 -"
b10100000 1"
b10100000 3"
1"
#500000
0"
#505000
b10101000 2"
b10101000 3
b10101000 #"
b10101000 0"
b10101000 /
b10101000 ?
b10101000 !"
b10101000 )"
b10100100 0
b10100100 @
b10100100 $"
b10100100 -"
b10100100 1"
b10100100 3"
1"
#510000
0"
#515000
b10101100 2"
b10101100 3
b10101100 #"
b10101100 0"
b10101100 /
b10101100 ?
b10101100 !"
b10101100 )"
b10101000 0
b10101000 @
b10101000 $"
b10101000 -"
b10101000 1"
b10101000 3"
1"
#520000
0"
#525000
b10110000 2"
b10110000 3
b10110000 #"
b10110000 0"
b10110000 /
b10110000 ?
b10110000 !"
b10110000 )"
b10101100 0
b10101100 @
b10101100 $"
b10101100 -"
b10101100 1"
b10101100 3"
1"
#530000
0"
#535000
b10110100 2"
b10110100 3
b10110100 #"
b10110100 0"
b10110100 /
b10110100 ?
b10110100 !"
b10110100 )"
b10110000 0
b10110000 @
b10110000 $"
b10110000 -"
b10110000 1"
b10110000 3"
1"
#540000
0"
#545000
b10111000 2"
b10111000 3
b10111000 #"
b10111000 0"
b10111000 /
b10111000 ?
b10111000 !"
b10111000 )"
b10110100 0
b10110100 @
b10110100 $"
b10110100 -"
b10110100 1"
b10110100 3"
1"
#550000
0"
#555000
b10111100 2"
b10111100 3
b10111100 #"
b10111100 0"
b10111100 /
b10111100 ?
b10111100 !"
b10111100 )"
b10111000 0
b10111000 @
b10111000 $"
b10111000 -"
b10111000 1"
b10111000 3"
1"
#560000
0"
#565000
b11000000 2"
b11000000 3
b11000000 #"
b11000000 0"
b11000000 /
b11000000 ?
b11000000 !"
b11000000 )"
b10111100 0
b10111100 @
b10111100 $"
b10111100 -"
b10111100 1"
b10111100 3"
1"
#570000
0"
#575000
b11000100 2"
b11000100 3
b11000100 #"
b11000100 0"
b11000100 /
b11000100 ?
b11000100 !"
b11000100 )"
b11000000 0
b11000000 @
b11000000 $"
b11000000 -"
b11000000 1"
b11000000 3"
1"
#580000
0"
#585000
b11001000 2"
b11001000 3
b11001000 #"
b11001000 0"
b11001000 /
b11001000 ?
b11001000 !"
b11001000 )"
b11000100 0
b11000100 @
b11000100 $"
b11000100 -"
b11000100 1"
b11000100 3"
1"
#590000
0"
#595000
b11001100 2"
b11001100 3
b11001100 #"
b11001100 0"
b11001100 /
b11001100 ?
b11001100 !"
b11001100 )"
b11001000 0
b11001000 @
b11001000 $"
b11001000 -"
b11001000 1"
b11001000 3"
1"
#600000
0"
#605000
b11010000 2"
b11010000 3
b11010000 #"
b11010000 0"
b11010000 /
b11010000 ?
b11010000 !"
b11010000 )"
b11001100 0
b11001100 @
b11001100 $"
b11001100 -"
b11001100 1"
b11001100 3"
1"
#610000
0"
#615000
b11010100 2"
b11010100 3
b11010100 #"
b11010100 0"
b11010100 /
b11010100 ?
b11010100 !"
b11010100 )"
b11010000 0
b11010000 @
b11010000 $"
b11010000 -"
b11010000 1"
b11010000 3"
1"
#620000
0"
